{
    "$schema": "https://raw.githubusercontent.com/infection/infection/0.26.4/resources/schema.json",
    "source": {
        "directories": [
            "src",
            "config"
        ]
    },
    "logs": {
        "text": "build/infection/infection.log",
        "html": "build/infection/infection.html"
    },
    "mutators": {
        "@default": true
    },
    "phpUnit": {
        "customPath": ".\/tools\/phpunit.phar"
    },
    "testFramework":"phpunit",
    "bootstrap":"./tests/autoload.php"
}
